<?xml version="1.0" encoding="UTF-8" standalone="no"?>
<?xml-stylesheet href="../../../graphviz.css" type="text/css"?>
<!DOCTYPE svg PUBLIC "-//W3C//DTD SVG 1.1//EN"
 "http://www.w3.org/Graphics/SVG/1.1/DTD/svg11.dtd">
<!-- Generated by graphviz version 2.38.0 (20140413.2041)
 -->
<!-- Title: G Pages: 1 -->
<svg width="276pt" height="188pt"
 viewBox="0.00 0.00 276.00 188.00" xmlns="http://www.w3.org/2000/svg" xmlns:xlink="http://www.w3.org/1999/xlink">
<g id="graph0" class="graph" transform="scale(1 1) rotate(0) translate(4 184)">
<title>G</title>
<polygon fill="white" stroke="none" points="-4,4 -4,-184 272,-184 272,4 -4,4"/>
<!-- body -->
<g id="node1" class="node"><title>body</title>
<polygon fill="none" stroke="black" points="121.045,-162 103.772,-180 69.2275,-180 51.955,-162 69.2275,-144 103.772,-144 121.045,-162"/>
<text text-anchor="middle" x="86.5" y="-158.3" font-family="Times New Roman,serif" font-size="14.00">body</text>
</g>
<!-- h1 -->
<g id="node2" class="node"><title>h1</title>
<polygon fill="none" stroke="black" points="77.5,-90 64,-108 37,-108 23.5,-90 37,-72 64,-72 77.5,-90"/>
<text text-anchor="middle" x="50.5" y="-86.3" font-family="Times New Roman,serif" font-size="14.00">h1</text>
</g>
<!-- body&#45;&gt;h1 -->
<g id="edge1" class="edge"><title>body&#45;&gt;h1</title>
<path fill="none" stroke="black" d="M77.6011,-143.697C73.5032,-135.728 68.5512,-126.1 64.0073,-117.264"/>
<polygon fill="black" stroke="black" points="66.9826,-115.396 59.2965,-108.104 60.7575,-118.598 66.9826,-115.396"/>
</g>
<!-- p -->
<g id="node4" class="node"><title>p</title>
<polygon fill="none" stroke="black" points="162.5,-90 149,-108 122,-108 108.5,-90 122,-72 149,-72 162.5,-90"/>
<text text-anchor="middle" x="135.5" y="-86.3" font-family="Times New Roman,serif" font-size="14.00">p</text>
</g>
<!-- body&#45;&gt;p -->
<g id="edge3" class="edge"><title>body&#45;&gt;p</title>
<path fill="none" stroke="black" d="M98.6124,-143.697C104.368,-135.474 111.362,-125.483 117.706,-116.421"/>
<polygon fill="black" stroke="black" points="120.66,-118.304 123.527,-108.104 114.925,-114.29 120.66,-118.304"/>
</g>
<!-- h1_content -->
<g id="node3" class="node"><title>h1_content</title>
<text text-anchor="middle" x="44.5" y="-14.3" font-family="Times New Roman,serif" font-size="14.00">First heading</text>
</g>
<!-- h1&#45;&gt;h1_content -->
<g id="edge2" class="edge"><title>h1&#45;&gt;h1_content</title>
<path fill="none" stroke="black" d="M49.0169,-71.6966C48.3557,-63.9827 47.5611,-54.7125 46.8239,-46.1124"/>
<polygon fill="black" stroke="black" points="50.3074,-45.7689 45.9661,-36.1043 43.333,-46.3667 50.3074,-45.7689"/>
</g>
<!-- p1_content -->
<g id="node5" class="node"><title>p1_content</title>
<text text-anchor="middle" x="142.5" y="-14.3" font-family="Times New Roman,serif" font-size="14.00">First para</text>
</g>
<!-- p&#45;&gt;p1_content -->
<g id="edge4" class="edge"><title>p&#45;&gt;p1_content</title>
<path fill="none" stroke="black" d="M137.23,-71.6966C138.002,-63.9827 138.929,-54.7125 139.789,-46.1124"/>
<polygon fill="black" stroke="black" points="143.277,-46.403 140.79,-36.1043 136.312,-45.7064 143.277,-46.403"/>
</g>
<!-- p2 -->
<g id="node6" class="node"><title>p2</title>
<polygon fill="none" stroke="black" points="251.5,-162 238,-180 211,-180 197.5,-162 211,-144 238,-144 251.5,-162"/>
<text text-anchor="middle" x="224.5" y="-158.3" font-family="Times New Roman,serif" font-size="14.00">p</text>
</g>
<!-- p2_content -->
<g id="node7" class="node"><title>p2_content</title>
<text text-anchor="middle" x="224.5" y="-86.3" font-family="Times New Roman,serif" font-size="14.00">Second para</text>
</g>
<!-- p2&#45;&gt;p2_content -->
<g id="edge5" class="edge"><title>p2&#45;&gt;p2_content</title>
<path fill="none" stroke="black" d="M224.5,-143.697C224.5,-135.983 224.5,-126.712 224.5,-118.112"/>
<polygon fill="black" stroke="black" points="228,-118.104 224.5,-108.104 221,-118.104 228,-118.104"/>
</g>
</g>
</svg>
