<?xml version="1.0" encoding="UTF-8" standalone="no"?>
<?xml-stylesheet href="../../../graphviz.css" type="text/css"?>
<!DOCTYPE svg PUBLIC "-//W3C//DTD SVG 1.1//EN"
 "http://www.w3.org/Graphics/SVG/1.1/DTD/svg11.dtd">
<!-- Generated by graphviz version 2.38.0 (20140413.2041)
 -->
<!-- Title: G Pages: 1 -->
<svg width="224pt" height="260pt"
 viewBox="0.00 0.00 224.00 260.00" xmlns="http://www.w3.org/2000/svg" xmlns:xlink="http://www.w3.org/1999/xlink">
<g id="graph0" class="graph" transform="scale(1 1) rotate(0) translate(4 256)">
<title>G</title>
<polygon fill="white" stroke="none" points="-4,4 -4,-256 220,-256 220,4 -4,4"/>
<!-- html -->
<g id="node1" class="node"><title>html</title>
<polygon fill="none" stroke="black" points="142.042,-234 126.771,-252 96.2291,-252 80.9582,-234 96.2291,-216 126.771,-216 142.042,-234"/>
<text text-anchor="middle" x="111.5" y="-230.3" font-family="Times New Roman,serif" font-size="14.00">html</text>
</g>
<!-- head -->
<g id="node2" class="node"><title>head</title>
<polygon fill="none" stroke="black" points="97.5436,-162 81.5218,-180 49.4782,-180 33.4564,-162 49.4782,-144 81.5218,-144 97.5436,-162"/>
<text text-anchor="middle" x="65.5" y="-158.3" font-family="Times New Roman,serif" font-size="14.00">head</text>
</g>
<!-- html&#45;&gt;head -->
<g id="edge1" class="edge"><title>html&#45;&gt;head</title>
<path fill="none" stroke="black" d="M100.129,-215.697C94.7815,-207.559 88.2957,-197.689 82.3894,-188.701"/>
<polygon fill="black" stroke="black" points="85.1568,-186.539 76.74,-180.104 79.3068,-190.384 85.1568,-186.539"/>
</g>
<!-- body -->
<g id="node5" class="node"><title>body</title>
<polygon fill="none" stroke="black" points="193.045,-162 175.772,-180 141.228,-180 123.955,-162 141.228,-144 175.772,-144 193.045,-162"/>
<text text-anchor="middle" x="158.5" y="-158.3" font-family="Times New Roman,serif" font-size="14.00">body</text>
</g>
<!-- html&#45;&gt;body -->
<g id="edge4" class="edge"><title>html&#45;&gt;body</title>
<path fill="none" stroke="black" d="M123.118,-215.697C128.639,-207.474 135.347,-197.483 141.432,-188.421"/>
<polygon fill="black" stroke="black" points="144.347,-190.358 147.016,-180.104 138.535,-186.456 144.347,-190.358"/>
</g>
<!-- title -->
<g id="node3" class="node"><title>title</title>
<polygon fill="none" stroke="black" points="76.5352,-90 63.0176,-108 35.9824,-108 22.4648,-90 35.9824,-72 63.0176,-72 76.5352,-90"/>
<text text-anchor="middle" x="49.5" y="-86.3" font-family="Times New Roman,serif" font-size="14.00">title</text>
</g>
<!-- head&#45;&gt;title -->
<g id="edge2" class="edge"><title>head&#45;&gt;title</title>
<path fill="none" stroke="black" d="M61.5449,-143.697C59.7818,-135.983 57.6628,-126.712 55.6971,-118.112"/>
<polygon fill="black" stroke="black" points="59.0499,-117.073 53.4096,-108.104 52.2259,-118.633 59.0499,-117.073"/>
</g>
<!-- title_content -->
<g id="node4" class="node"><title>title_content</title>
<text text-anchor="middle" x="45.5" y="-14.3" font-family="Times New Roman,serif" font-size="14.00">My first page</text>
</g>
<!-- title&#45;&gt;title_content -->
<g id="edge3" class="edge"><title>title&#45;&gt;title_content</title>
<path fill="none" stroke="black" d="M48.5112,-71.6966C48.0704,-63.9827 47.5407,-54.7125 47.0493,-46.1124"/>
<polygon fill="black" stroke="black" points="50.5423,-45.8883 46.4774,-36.1043 43.5537,-46.2878 50.5423,-45.8883"/>
</g>
<!-- h1 -->
<g id="node6" class="node"><title>h1</title>
<polygon fill="none" stroke="black" points="187.5,-90 174,-108 147,-108 133.5,-90 147,-72 174,-72 187.5,-90"/>
<text text-anchor="middle" x="160.5" y="-86.3" font-family="Times New Roman,serif" font-size="14.00">h1</text>
</g>
<!-- body&#45;&gt;h1 -->
<g id="edge5" class="edge"><title>body&#45;&gt;h1</title>
<path fill="none" stroke="black" d="M158.994,-143.697C159.215,-135.983 159.48,-126.712 159.725,-118.112"/>
<polygon fill="black" stroke="black" points="163.224,-118.2 160.011,-108.104 156.227,-118 163.224,-118.2"/>
</g>
<!-- h1_content -->
<g id="node7" class="node"><title>h1_content</title>
<text text-anchor="middle" x="162.5" y="-14.3" font-family="Times New Roman,serif" font-size="14.00">My first heading</text>
</g>
<!-- h1&#45;&gt;h1_content -->
<g id="edge6" class="edge"><title>h1&#45;&gt;h1_content</title>
<path fill="none" stroke="black" d="M160.994,-71.6966C161.215,-63.9827 161.48,-54.7125 161.725,-46.1124"/>
<polygon fill="black" stroke="black" points="165.224,-46.2002 162.011,-36.1043 158.227,-46.0003 165.224,-46.2002"/>
</g>
</g>
</svg>
