<?xml version="1.0" encoding="UTF-8" standalone="no"?>
<?xml-stylesheet href="../graphviz.css" type="text/css"?>
<!DOCTYPE svg PUBLIC "-//W3C//DTD SVG 1.1//EN"
 "http://www.w3.org/Graphics/SVG/1.1/DTD/svg11.dtd">
<!-- Generated by graphviz version 2.38.0 (20140413.2041)
 -->
<!-- Title: G Pages: 1 -->
<svg width="335pt" height="215pt"
 viewBox="0.00 0.00 335.00 215.00" xmlns="http://www.w3.org/2000/svg" xmlns:xlink="http://www.w3.org/1999/xlink">
<g id="graph0" class="graph" transform="scale(1 1) rotate(0) translate(4 211)">
<title>G</title>
<polygon fill="white" stroke="none" points="-4,4 -4,-211 331,-211 331,4 -4,4"/>
<g id="clust1" class="cluster"><title>cluster_track</title>
<polygon fill="none" stroke="black" stroke-width="0" points="8,-8 8,-199 176,-199 176,-8 8,-8"/>
<text text-anchor="middle" x="92" y="-183.8" font-family="Times New Roman,serif" font-size="14.00">Table: Track</text>
</g>
<g id="clust2" class="cluster"><title>cluster_album</title>
<polygon fill="none" stroke="black" stroke-width="0" points="196,-8 196,-139 319,-139 319,-8 196,-8"/>
<text text-anchor="middle" x="257.5" y="-123.8" font-family="Times New Roman,serif" font-size="14.00">Table: Album</text>
</g>
<!-- track -->
<g id="node1" class="node"><title>track</title>
<polygon fill="none" stroke="black" points="16,-17 16,-167 168,-167 168,-17 16,-17"/>
<text text-anchor="middle" x="92" y="-147" font-family="Consolas" font-size="20.00">TrackId</text>
<polyline fill="none" stroke="black" points="16,-137 168,-137 "/>
<text text-anchor="middle" x="92" y="-117" font-family="Consolas" font-size="20.00">Name</text>
<polyline fill="none" stroke="black" points="16,-107 168,-107 "/>
<text text-anchor="middle" x="92" y="-87" font-family="Consolas" font-size="20.00">AlbumId</text>
<polyline fill="none" stroke="black" points="16,-77 168,-77 "/>
<text text-anchor="middle" x="92" y="-57" font-family="Consolas" font-size="20.00">Milliseconds</text>
<polyline fill="none" stroke="black" points="16,-47 168,-47 "/>
<text text-anchor="middle" x="92" y="-27" font-family="Consolas" font-size="20.00">...</text>
</g>
<!-- album -->
<g id="node2" class="node"><title>album</title>
<polygon fill="none" stroke="black" points="204,-17 204,-107 311,-107 311,-17 204,-17"/>
<text text-anchor="middle" x="257.5" y="-87" font-family="Consolas" font-size="20.00">AlbumId</text>
<polyline fill="none" stroke="black" points="204,-77 311,-77 "/>
<text text-anchor="middle" x="257.5" y="-57" font-family="Consolas" font-size="20.00">Title</text>
<polyline fill="none" stroke="black" points="204,-47 311,-47 "/>
<text text-anchor="middle" x="257.5" y="-27" font-family="Consolas" font-size="20.00">ArtistId</text>
</g>
<!-- track&#45;&gt;album -->
<g id="edge1" class="edge"><title>track:f0&#45;&gt;album:f0</title>
<path fill="none" stroke="black" d="M169,-92C179.701,-92 184.634,-92 192.091,-92"/>
<polygon fill="black" stroke="black" points="192.5,-95.5001 202.5,-92 192.5,-88.5001 192.5,-95.5001"/>
</g>
</g>
</svg>
