<?xml version="1.0" encoding="UTF-8" standalone="no"?>
<?xml-stylesheet href="../../graphviz.css" type="text/css"?>
<!DOCTYPE svg PUBLIC "-//W3C//DTD SVG 1.1//EN"
 "http://www.w3.org/Graphics/SVG/1.1/DTD/svg11.dtd">
<!-- Generated by graphviz version 2.38.0 (20140413.2041)
 -->
<!-- Title: G Pages: 1 -->
<svg width="779pt" height="260pt"
 viewBox="0.00 0.00 779.05 260.00" xmlns="http://www.w3.org/2000/svg" xmlns:xlink="http://www.w3.org/1999/xlink">
<g id="graph0" class="graph" transform="scale(1 1) rotate(0) translate(4 256)">
<title>G</title>
<polygon fill="white" stroke="none" points="-4,4 -4,-256 775.047,-256 775.047,4 -4,4"/>
<!-- ul -->
<g id="node1" class="node"><title>ul</title>
<polygon fill="none" stroke="black" points="405.271,-234 391.771,-252 364.771,-252 351.271,-234 364.771,-216 391.771,-216 405.271,-234"/>
<text text-anchor="middle" x="378.271" y="-230.3" font-family="Times New Roman,serif" font-size="14.00">ul</text>
</g>
<!-- li1 -->
<g id="node2" class="node"><title>li1</title>
<polygon fill="none" stroke="black" points="187.271,-162 173.771,-180 146.771,-180 133.271,-162 146.771,-144 173.771,-144 187.271,-162"/>
<text text-anchor="middle" x="160.271" y="-158.3" font-family="Times New Roman,serif" font-size="14.00">li</text>
</g>
<!-- ul&#45;&gt;li1 -->
<g id="edge1" class="edge"><title>ul&#45;&gt;li1</title>
<path fill="none" stroke="black" d="M356.971,-226.161C318.307,-213.745 236.422,-187.452 191.455,-173.013"/>
<polygon fill="black" stroke="black" points="192.248,-169.592 181.657,-169.867 190.108,-176.257 192.248,-169.592"/>
</g>
<!-- li2 -->
<g id="node3" class="node"><title>li2</title>
<polygon fill="none" stroke="black" points="405.271,-162 391.771,-180 364.771,-180 351.271,-162 364.771,-144 391.771,-144 405.271,-162"/>
<text text-anchor="middle" x="378.271" y="-158.3" font-family="Times New Roman,serif" font-size="14.00">li</text>
</g>
<!-- ul&#45;&gt;li2 -->
<g id="edge2" class="edge"><title>ul&#45;&gt;li2</title>
<path fill="none" stroke="black" d="M378.271,-215.697C378.271,-207.983 378.271,-198.712 378.271,-190.112"/>
<polygon fill="black" stroke="black" points="381.771,-190.104 378.271,-180.104 374.771,-190.104 381.771,-190.104"/>
</g>
<!-- li3 -->
<g id="node4" class="node"><title>li3</title>
<polygon fill="none" stroke="black" points="626.271,-162 612.771,-180 585.771,-180 572.271,-162 585.771,-144 612.771,-144 626.271,-162"/>
<text text-anchor="middle" x="599.271" y="-158.3" font-family="Times New Roman,serif" font-size="14.00">li</text>
</g>
<!-- ul&#45;&gt;li3 -->
<g id="edge3" class="edge"><title>ul&#45;&gt;li3</title>
<path fill="none" stroke="black" d="M399.864,-226.161C439.244,-213.687 522.85,-187.206 568.295,-172.811"/>
<polygon fill="black" stroke="black" points="569.44,-176.12 577.916,-169.764 567.326,-169.447 569.44,-176.12"/>
</g>
<!-- nameSpan1 -->
<g id="node5" class="node"><title>nameSpan1</title>
<polygon fill="none" stroke="black" points="64.3147,-90 48.2928,-108 16.2492,-108 0.22737,-90 16.2492,-72 48.2928,-72 64.3147,-90"/>
<text text-anchor="middle" x="32.271" y="-86.3" font-family="Times New Roman,serif" font-size="14.00">span</text>
</g>
<!-- li1&#45;&gt;nameSpan1 -->
<g id="edge4" class="edge"><title>li1&#45;&gt;nameSpan1</title>
<path fill="none" stroke="black" d="M141.384,-150.671C120.542,-139.273 86.7116,-120.772 62.241,-107.39"/>
<polygon fill="black" stroke="black" points="63.8204,-104.264 53.3673,-102.537 60.4616,-110.406 63.8204,-104.264"/>
</g>
<!-- quantitySpan1 -->
<g id="node6" class="node"><title>quantitySpan1</title>
<polygon fill="none" stroke="black" points="147.315,-90 131.293,-108 99.2492,-108 83.2274,-90 99.2492,-72 131.293,-72 147.315,-90"/>
<text text-anchor="middle" x="115.271" y="-86.3" font-family="Times New Roman,serif" font-size="14.00">span</text>
</g>
<!-- li1&#45;&gt;quantitySpan1 -->
<g id="edge5" class="edge"><title>li1&#45;&gt;quantitySpan1</title>
<path fill="none" stroke="black" d="M149.147,-143.697C143.916,-135.559 137.571,-125.689 131.793,-116.701"/>
<polygon fill="black" stroke="black" points="134.618,-114.623 126.267,-108.104 128.73,-118.409 134.618,-114.623"/>
</g>
<!-- delete1 -->
<g id="node7" class="node"><title>delete1</title>
<polygon fill="none" stroke="black" points="244.824,-90 225.048,-108 185.494,-108 165.718,-90 185.494,-72 225.048,-72 244.824,-90"/>
<text text-anchor="middle" x="205.271" y="-86.3" font-family="Times New Roman,serif" font-size="14.00">button</text>
</g>
<!-- li1&#45;&gt;delete1 -->
<g id="edge6" class="edge"><title>li1&#45;&gt;delete1</title>
<path fill="none" stroke="black" d="M171.395,-143.697C176.626,-135.559 182.971,-125.689 188.749,-116.701"/>
<polygon fill="black" stroke="black" points="191.812,-118.409 194.275,-108.104 185.924,-114.623 191.812,-118.409"/>
</g>
<!-- nameSpan2 -->
<g id="node11" class="node"><title>nameSpan2</title>
<polygon fill="none" stroke="black" points="327.315,-90 311.293,-108 279.249,-108 263.227,-90 279.249,-72 311.293,-72 327.315,-90"/>
<text text-anchor="middle" x="295.271" y="-86.3" font-family="Times New Roman,serif" font-size="14.00">span</text>
</g>
<!-- li2&#45;&gt;nameSpan2 -->
<g id="edge10" class="edge"><title>li2&#45;&gt;nameSpan2</title>
<path fill="none" stroke="black" d="M361.873,-147.17C350.214,-137.337 334.321,-123.934 320.985,-112.686"/>
<polygon fill="black" stroke="black" points="322.973,-109.784 313.072,-106.013 318.46,-115.135 322.973,-109.784"/>
</g>
<!-- quantitySpan2 -->
<g id="node12" class="node"><title>quantitySpan2</title>
<polygon fill="none" stroke="black" points="410.315,-90 394.293,-108 362.249,-108 346.227,-90 362.249,-72 394.293,-72 410.315,-90"/>
<text text-anchor="middle" x="378.271" y="-86.3" font-family="Times New Roman,serif" font-size="14.00">span</text>
</g>
<!-- li2&#45;&gt;quantitySpan2 -->
<g id="edge11" class="edge"><title>li2&#45;&gt;quantitySpan2</title>
<path fill="none" stroke="black" d="M378.271,-143.697C378.271,-135.983 378.271,-126.712 378.271,-118.112"/>
<polygon fill="black" stroke="black" points="381.771,-118.104 378.271,-108.104 374.771,-118.104 381.771,-118.104"/>
</g>
<!-- delete2 -->
<g id="node13" class="node"><title>delete2</title>
<polygon fill="none" stroke="black" points="507.824,-90 488.048,-108 448.494,-108 428.718,-90 448.494,-72 488.048,-72 507.824,-90"/>
<text text-anchor="middle" x="468.271" y="-86.3" font-family="Times New Roman,serif" font-size="14.00">button</text>
</g>
<!-- li2&#45;&gt;delete2 -->
<g id="edge12" class="edge"><title>li2&#45;&gt;delete2</title>
<path fill="none" stroke="black" d="M395.199,-147.834C407.543,-138.233 424.58,-124.982 439.097,-113.691"/>
<polygon fill="black" stroke="black" points="441.555,-116.213 447.3,-107.311 437.257,-110.688 441.555,-116.213"/>
</g>
<!-- nameSpan3 -->
<g id="node17" class="node"><title>nameSpan3</title>
<polygon fill="none" stroke="black" points="590.315,-90 574.293,-108 542.249,-108 526.227,-90 542.249,-72 574.293,-72 590.315,-90"/>
<text text-anchor="middle" x="558.271" y="-86.3" font-family="Times New Roman,serif" font-size="14.00">span</text>
</g>
<!-- li3&#45;&gt;nameSpan3 -->
<g id="edge16" class="edge"><title>li3&#45;&gt;nameSpan3</title>
<path fill="none" stroke="black" d="M589.136,-143.697C584.419,-135.644 578.709,-125.894 573.489,-116.982"/>
<polygon fill="black" stroke="black" points="576.363,-114.964 568.289,-108.104 570.323,-118.502 576.363,-114.964"/>
</g>
<!-- quantitySpan3 -->
<g id="node18" class="node"><title>quantitySpan3</title>
<polygon fill="none" stroke="black" points="673.315,-90 657.293,-108 625.249,-108 609.227,-90 625.249,-72 657.293,-72 673.315,-90"/>
<text text-anchor="middle" x="641.271" y="-86.3" font-family="Times New Roman,serif" font-size="14.00">span</text>
</g>
<!-- li3&#45;&gt;quantitySpan3 -->
<g id="edge17" class="edge"><title>li3&#45;&gt;quantitySpan3</title>
<path fill="none" stroke="black" d="M609.653,-143.697C614.536,-135.559 620.458,-125.689 625.85,-116.701"/>
<polygon fill="black" stroke="black" points="628.865,-118.48 631.008,-108.104 622.862,-114.879 628.865,-118.48"/>
</g>
<!-- delete3 -->
<g id="node19" class="node"><title>delete3</title>
<polygon fill="none" stroke="black" points="770.824,-90 751.048,-108 711.494,-108 691.718,-90 711.494,-72 751.048,-72 770.824,-90"/>
<text text-anchor="middle" x="731.271" y="-86.3" font-family="Times New Roman,serif" font-size="14.00">button</text>
</g>
<!-- li3&#45;&gt;delete3 -->
<g id="edge18" class="edge"><title>li3&#45;&gt;delete3</title>
<path fill="none" stroke="black" d="M618.183,-150.971C638.881,-139.995 672.471,-122.182 697.675,-108.816"/>
<polygon fill="black" stroke="black" points="699.347,-111.891 706.542,-104.114 696.068,-105.707 699.347,-111.891"/>
</g>
<!-- eggs -->
<g id="node8" class="node"><title>eggs</title>
<text text-anchor="middle" x="32.271" y="-14.3" font-family="Times New Roman,serif" font-size="14.00">Eggs</text>
</g>
<!-- nameSpan1&#45;&gt;eggs -->
<g id="edge7" class="edge"><title>nameSpan1&#45;&gt;eggs</title>
<path fill="none" stroke="black" d="M32.271,-71.6966C32.271,-63.9827 32.271,-54.7125 32.271,-46.1124"/>
<polygon fill="black" stroke="black" points="35.7711,-46.1043 32.271,-36.1043 28.7711,-46.1044 35.7711,-46.1043"/>
</g>
<!-- six -->
<g id="node9" class="node"><title>six</title>
<text text-anchor="middle" x="115.271" y="-14.3" font-family="Times New Roman,serif" font-size="14.00">6</text>
</g>
<!-- quantitySpan1&#45;&gt;six -->
<g id="edge8" class="edge"><title>quantitySpan1&#45;&gt;six</title>
<path fill="none" stroke="black" d="M115.271,-71.6966C115.271,-63.9827 115.271,-54.7125 115.271,-46.1124"/>
<polygon fill="black" stroke="black" points="118.771,-46.1043 115.271,-36.1043 111.771,-46.1044 118.771,-46.1043"/>
</g>
<!-- delete1Text -->
<g id="node10" class="node"><title>delete1Text</title>
<text text-anchor="middle" x="205.271" y="-14.3" font-family="Times New Roman,serif" font-size="14.00">Delete</text>
</g>
<!-- delete1&#45;&gt;delete1Text -->
<g id="edge9" class="edge"><title>delete1&#45;&gt;delete1Text</title>
<path fill="none" stroke="black" d="M205.271,-71.6966C205.271,-63.9827 205.271,-54.7125 205.271,-46.1124"/>
<polygon fill="black" stroke="black" points="208.771,-46.1043 205.271,-36.1043 201.771,-46.1044 208.771,-46.1043"/>
</g>
<!-- milk -->
<g id="node14" class="node"><title>milk</title>
<text text-anchor="middle" x="295.271" y="-14.3" font-family="Times New Roman,serif" font-size="14.00">Milk</text>
</g>
<!-- nameSpan2&#45;&gt;milk -->
<g id="edge13" class="edge"><title>nameSpan2&#45;&gt;milk</title>
<path fill="none" stroke="black" d="M295.271,-71.6966C295.271,-63.9827 295.271,-54.7125 295.271,-46.1124"/>
<polygon fill="black" stroke="black" points="298.771,-46.1043 295.271,-36.1043 291.771,-46.1044 298.771,-46.1043"/>
</g>
<!-- litre -->
<g id="node15" class="node"><title>litre</title>
<text text-anchor="middle" x="378.271" y="-14.3" font-family="Times New Roman,serif" font-size="14.00">1L</text>
</g>
<!-- quantitySpan2&#45;&gt;litre -->
<g id="edge14" class="edge"><title>quantitySpan2&#45;&gt;litre</title>
<path fill="none" stroke="black" d="M378.271,-71.6966C378.271,-63.9827 378.271,-54.7125 378.271,-46.1124"/>
<polygon fill="black" stroke="black" points="381.771,-46.1043 378.271,-36.1043 374.771,-46.1044 381.771,-46.1043"/>
</g>
<!-- delete2Text -->
<g id="node16" class="node"><title>delete2Text</title>
<text text-anchor="middle" x="468.271" y="-14.3" font-family="Times New Roman,serif" font-size="14.00">Delete</text>
</g>
<!-- delete2&#45;&gt;delete2Text -->
<g id="edge15" class="edge"><title>delete2&#45;&gt;delete2Text</title>
<path fill="none" stroke="black" d="M468.271,-71.6966C468.271,-63.9827 468.271,-54.7125 468.271,-46.1124"/>
<polygon fill="black" stroke="black" points="471.771,-46.1043 468.271,-36.1043 464.771,-46.1044 471.771,-46.1043"/>
</g>
<!-- flour -->
<g id="node20" class="node"><title>flour</title>
<text text-anchor="middle" x="558.271" y="-14.3" font-family="Times New Roman,serif" font-size="14.00">Flour</text>
</g>
<!-- nameSpan3&#45;&gt;flour -->
<g id="edge19" class="edge"><title>nameSpan3&#45;&gt;flour</title>
<path fill="none" stroke="black" d="M558.271,-71.6966C558.271,-63.9827 558.271,-54.7125 558.271,-46.1124"/>
<polygon fill="black" stroke="black" points="561.771,-46.1043 558.271,-36.1043 554.771,-46.1044 561.771,-46.1043"/>
</g>
<!-- 500 -->
<g id="node21" class="node"><title>500</title>
<text text-anchor="middle" x="641.271" y="-14.3" font-family="Times New Roman,serif" font-size="14.00">500g</text>
</g>
<!-- quantitySpan3&#45;&gt;500 -->
<g id="edge20" class="edge"><title>quantitySpan3&#45;&gt;500</title>
<path fill="none" stroke="black" d="M641.271,-71.6966C641.271,-63.9827 641.271,-54.7125 641.271,-46.1124"/>
<polygon fill="black" stroke="black" points="644.771,-46.1043 641.271,-36.1043 637.771,-46.1044 644.771,-46.1043"/>
</g>
<!-- delete3Text -->
<g id="node22" class="node"><title>delete3Text</title>
<text text-anchor="middle" x="731.271" y="-14.3" font-family="Times New Roman,serif" font-size="14.00">Delete</text>
</g>
<!-- delete3&#45;&gt;delete3Text -->
<g id="edge21" class="edge"><title>delete3&#45;&gt;delete3Text</title>
<path fill="none" stroke="black" d="M731.271,-71.6966C731.271,-63.9827 731.271,-54.7125 731.271,-46.1124"/>
<polygon fill="black" stroke="black" points="734.771,-46.1043 731.271,-36.1043 727.771,-46.1044 734.771,-46.1043"/>
</g>
</g>
</svg>
