<?xml version="1.0" encoding="UTF-8" standalone="no"?>
<?xml-stylesheet href="../graphviz.css" type="text/css"?>
<!DOCTYPE svg PUBLIC "-//W3C//DTD SVG 1.1//EN"
 "http://www.w3.org/Graphics/SVG/1.1/DTD/svg11.dtd">
<!-- Generated by graphviz version 2.38.0 (20140413.2041)
 -->
<!-- Title: G Pages: 1 -->
<svg width="1099pt" height="263pt"
 viewBox="0.00 0.00 1098.50 263.00" xmlns="http://www.w3.org/2000/svg" xmlns:xlink="http://www.w3.org/1999/xlink">
<g id="graph0" class="graph" transform="scale(1 1) rotate(0) translate(4 259)">
<title>G</title>
<polygon fill="white" stroke="none" points="-4,4 -4,-259 1094.5,-259 1094.5,4 -4,4"/>
<!-- prompt -->
<g id="node1" class="node"><title>prompt</title>
<text text-anchor="middle" x="307.5" y="-115.6" font-family="Courier,monospace" font-size="48.00">C:\Users\Nik Clayton&gt;</text>
</g>
<!-- command -->
<g id="node2" class="node"><title>command</title>
<text text-anchor="middle" x="684.5" y="-115.6" font-family="Courier,monospace" font-size="48.00">dir</text>
</g>
<!-- command_label -->
<g id="node7" class="node"><title>command_label</title>
<text text-anchor="middle" x="684.5" y="-18.6" font-family="Lato" font-size="48.00">Command</text>
</g>
<!-- command&#45;&#45;command_label -->
<g id="edge2" class="edge"><title>command&#45;&#45;command_label</title>
<path fill="none" stroke="black" d="M684.5,-96.9622C684.5,-85.5239 684.5,-72.4561 684.5,-61.0196"/>
</g>
<!-- option -->
<g id="node3" class="node"><title>option</title>
<text text-anchor="middle" x="809.5" y="-115.6" font-family="Courier,monospace" font-size="48.00">\w</text>
</g>
<!-- argument -->
<g id="node4" class="node"><title>argument</title>
<text text-anchor="middle" x="962.5" y="-115.6" font-family="Courier,monospace" font-size="48.00">*.png</text>
</g>
<!-- option_label -->
<g id="node5" class="node"><title>option_label</title>
<text text-anchor="middle" x="809.5" y="-212.6" font-family="Lato" font-size="48.00">Option</text>
</g>
<!-- option_label&#45;&#45;option -->
<g id="edge3" class="edge"><title>option_label&#45;&#45;option</title>
<path fill="none" stroke="black" d="M809.5,-193.962C809.5,-182.524 809.5,-169.456 809.5,-158.02"/>
</g>
<!-- prompt_label -->
<g id="node6" class="node"><title>prompt_label</title>
<text text-anchor="middle" x="307.5" y="-18.6" font-family="Lato" font-size="48.00">Prompt</text>
</g>
<!-- prompt_label&#45;&#45;prompt -->
<g id="edge1" class="edge"><title>prompt_label&#45;&#45;prompt</title>
<path fill="none" stroke="black" d="M307.5,-61.0196C307.5,-72.4561 307.5,-85.5239 307.5,-96.9622"/>
</g>
<!-- argument_label -->
<g id="node8" class="node"><title>argument_label</title>
<text text-anchor="middle" x="962.5" y="-18.6" font-family="Lato" font-size="48.00">Argument</text>
</g>
<!-- argument_label&#45;&#45;argument -->
<g id="edge4" class="edge"><title>argument_label&#45;&#45;argument</title>
<path fill="none" stroke="black" d="M962.5,-61.0196C962.5,-72.4561 962.5,-85.5239 962.5,-96.9622"/>
</g>
</g>
</svg>
