<?xml version="1.0" encoding="UTF-8" standalone="no"?>
<?xml-stylesheet href="../../../graphviz.css" type="text/css"?>
<!DOCTYPE svg PUBLIC "-//W3C//DTD SVG 1.1//EN"
 "http://www.w3.org/Graphics/SVG/1.1/DTD/svg11.dtd">
<!-- Generated by graphviz version 2.38.0 (20140413.2041)
 -->
<!-- Title: G Pages: 1 -->
<svg width="291pt" height="188pt"
 viewBox="0.00 0.00 291.00 188.00" xmlns="http://www.w3.org/2000/svg" xmlns:xlink="http://www.w3.org/1999/xlink">
<g id="graph0" class="graph" transform="scale(1 1) rotate(0) translate(4 184)">
<title>G</title>
<polygon fill="white" stroke="none" points="-4,4 -4,-184 287,-184 287,4 -4,4"/>
<!-- body -->
<g id="node1" class="node"><title>body</title>
<polygon fill="none" stroke="black" points="177.045,-162 159.772,-180 125.228,-180 107.955,-162 125.228,-144 159.772,-144 177.045,-162"/>
<text text-anchor="middle" x="142.5" y="-158.3" font-family="Times New Roman,serif" font-size="14.00">body</text>
</g>
<!-- h1 -->
<g id="node2" class="node"><title>h1</title>
<polygon fill="none" stroke="black" points="84.5,-90 71,-108 44,-108 30.5,-90 44,-72 71,-72 84.5,-90"/>
<text text-anchor="middle" x="57.5" y="-86.3" font-family="Times New Roman,serif" font-size="14.00">h1</text>
</g>
<!-- body&#45;&gt;h1 -->
<g id="edge1" class="edge"><title>body&#45;&gt;h1</title>
<path fill="none" stroke="black" d="M123.636,-145.465C111.242,-135.258 94.9156,-121.813 81.5856,-110.835"/>
<polygon fill="black" stroke="black" points="83.6793,-108.025 73.7349,-104.37 79.2293,-113.429 83.6793,-108.025"/>
</g>
<!-- p -->
<g id="node4" class="node"><title>p</title>
<polygon fill="none" stroke="black" points="169.5,-90 156,-108 129,-108 115.5,-90 129,-72 156,-72 169.5,-90"/>
<text text-anchor="middle" x="142.5" y="-86.3" font-family="Times New Roman,serif" font-size="14.00">p</text>
</g>
<!-- body&#45;&gt;p -->
<g id="edge3" class="edge"><title>body&#45;&gt;p</title>
<path fill="none" stroke="black" d="M142.5,-143.697C142.5,-135.983 142.5,-126.712 142.5,-118.112"/>
<polygon fill="black" stroke="black" points="146,-118.104 142.5,-108.104 139,-118.104 146,-118.104"/>
</g>
<!-- p2 -->
<g id="node6" class="node"><title>p2</title>
<polygon fill="none" stroke="black" points="253.5,-90 240,-108 213,-108 199.5,-90 213,-72 240,-72 253.5,-90"/>
<text text-anchor="middle" x="226.5" y="-86.3" font-family="Times New Roman,serif" font-size="14.00">p</text>
</g>
<!-- body&#45;&gt;p2 -->
<g id="edge5" class="edge"><title>body&#45;&gt;p2</title>
<path fill="none" stroke="black" d="M161.561,-145.116C173.632,-135.057 189.35,-121.959 202.298,-111.168"/>
<polygon fill="black" stroke="black" points="204.9,-113.556 210.341,-104.466 200.418,-108.179 204.9,-113.556"/>
</g>
<!-- h1_content -->
<g id="node3" class="node"><title>h1_content</title>
<text text-anchor="middle" x="44.5" y="-14.3" font-family="Times New Roman,serif" font-size="14.00">First heading</text>
</g>
<!-- h1&#45;&gt;h1_content -->
<g id="edge2" class="edge"><title>h1&#45;&gt;h1_content</title>
<path fill="none" stroke="black" d="M54.2865,-71.6966C52.8539,-63.9827 51.1323,-54.7125 49.5352,-46.1124"/>
<polygon fill="black" stroke="black" points="52.9437,-45.2971 47.6765,-36.1043 46.0614,-46.5753 52.9437,-45.2971"/>
</g>
<!-- p1_content -->
<g id="node5" class="node"><title>p1_content</title>
<text text-anchor="middle" x="142.5" y="-14.3" font-family="Times New Roman,serif" font-size="14.00">First para</text>
</g>
<!-- p&#45;&gt;p1_content -->
<g id="edge4" class="edge"><title>p&#45;&gt;p1_content</title>
<path fill="none" stroke="black" d="M142.5,-71.6966C142.5,-63.9827 142.5,-54.7125 142.5,-46.1124"/>
<polygon fill="black" stroke="black" points="146,-46.1043 142.5,-36.1043 139,-46.1044 146,-46.1043"/>
</g>
<!-- p2_content -->
<g id="node7" class="node"><title>p2_content</title>
<text text-anchor="middle" x="239.5" y="-14.3" font-family="Times New Roman,serif" font-size="14.00">Second para</text>
</g>
<!-- p2&#45;&gt;p2_content -->
<g id="edge6" class="edge"><title>p2&#45;&gt;p2_content</title>
<path fill="none" stroke="black" d="M229.713,-71.6966C231.146,-63.9827 232.868,-54.7125 234.465,-46.1124"/>
<polygon fill="black" stroke="black" points="237.939,-46.5753 236.323,-36.1043 231.056,-45.2971 237.939,-46.5753"/>
</g>
</g>
</svg>
