<?xml version="1.0" encoding="UTF-8" standalone="no"?>
<?xml-stylesheet href="../../../graphviz.css" type="text/css"?>
<!DOCTYPE svg PUBLIC "-//W3C//DTD SVG 1.1//EN"
 "http://www.w3.org/Graphics/SVG/1.1/DTD/svg11.dtd">
<!-- Generated by graphviz version 2.38.0 (20140413.2041)
 -->
<!-- Title: G Pages: 1 -->
<svg width="173pt" height="260pt"
 viewBox="0.00 0.00 173.02 260.00" xmlns="http://www.w3.org/2000/svg" xmlns:xlink="http://www.w3.org/1999/xlink">
<g id="graph0" class="graph" transform="scale(1 1) rotate(0) translate(4 256)">
<title>G</title>
<polygon fill="white" stroke="none" points="-4,4 -4,-256 169.022,-256 169.022,4 -4,4"/>
<!-- html -->
<g id="node1" class="node"><title>html</title>
<polygon fill="none" stroke="black" points="118.042,-234 102.771,-252 72.2291,-252 56.9582,-234 72.2291,-216 102.771,-216 118.042,-234"/>
<text text-anchor="middle" x="87.5" y="-230.3" font-family="Times New Roman,serif" font-size="14.00">html</text>
</g>
<!-- head -->
<g id="node2" class="node"><title>head</title>
<polygon fill="none" stroke="black" points="77.5436,-162 61.5218,-180 29.4782,-180 13.4564,-162 29.4782,-144 61.5218,-144 77.5436,-162"/>
<text text-anchor="middle" x="45.5" y="-158.3" font-family="Times New Roman,serif" font-size="14.00">head</text>
</g>
<!-- html&#45;&gt;head -->
<g id="edge1" class="edge"><title>html&#45;&gt;head</title>
<path fill="none" stroke="black" d="M77.118,-215.697C72.2353,-207.559 66.3134,-197.689 60.9208,-188.701"/>
<polygon fill="black" stroke="black" points="63.9088,-186.879 55.7626,-180.104 57.9064,-190.48 63.9088,-186.879"/>
</g>
<!-- body -->
<g id="node5" class="node"><title>body</title>
<polygon fill="none" stroke="black" points="165.045,-162 147.772,-180 113.228,-180 95.955,-162 113.228,-144 147.772,-144 165.045,-162"/>
<text text-anchor="middle" x="130.5" y="-158.3" font-family="Times New Roman,serif" font-size="14.00">body</text>
</g>
<!-- html&#45;&gt;body -->
<g id="edge4" class="edge"><title>html&#45;&gt;body</title>
<path fill="none" stroke="black" d="M98.1292,-215.697C103.128,-207.559 109.191,-197.689 114.712,-188.701"/>
<polygon fill="black" stroke="black" points="117.741,-190.457 119.993,-180.104 111.777,-186.793 117.741,-190.457"/>
</g>
<!-- title -->
<g id="node3" class="node"><title>title</title>
<polygon fill="none" stroke="black" points="72.5352,-90 59.0176,-108 31.9824,-108 18.4648,-90 31.9824,-72 59.0176,-72 72.5352,-90"/>
<text text-anchor="middle" x="45.5" y="-86.3" font-family="Times New Roman,serif" font-size="14.00">title</text>
</g>
<!-- head&#45;&gt;title -->
<g id="edge2" class="edge"><title>head&#45;&gt;title</title>
<path fill="none" stroke="black" d="M45.5,-143.697C45.5,-135.983 45.5,-126.712 45.5,-118.112"/>
<polygon fill="black" stroke="black" points="49.0001,-118.104 45.5,-108.104 42.0001,-118.104 49.0001,-118.104"/>
</g>
<!-- title_content -->
<g id="node4" class="node"><title>title_content</title>
<text text-anchor="middle" x="45.5" y="-14.3" font-family="Times New Roman,serif" font-size="14.00">My first page</text>
</g>
<!-- title&#45;&gt;title_content -->
<g id="edge3" class="edge"><title>title&#45;&gt;title_content</title>
<path fill="none" stroke="black" d="M45.5,-71.6966C45.5,-63.9827 45.5,-54.7125 45.5,-46.1124"/>
<polygon fill="black" stroke="black" points="49.0001,-46.1043 45.5,-36.1043 42.0001,-46.1044 49.0001,-46.1043"/>
</g>
<!-- h1 -->
<g id="node6" class="node"><title>h1</title>
<polygon fill="none" stroke="black" points="157.5,-90 144,-108 117,-108 103.5,-90 117,-72 144,-72 157.5,-90"/>
<text text-anchor="middle" x="130.5" y="-86.3" font-family="Times New Roman,serif" font-size="14.00">h1</text>
</g>
<!-- body&#45;&gt;h1 -->
<g id="edge5" class="edge"><title>body&#45;&gt;h1</title>
<path fill="none" stroke="black" d="M130.5,-143.697C130.5,-135.983 130.5,-126.712 130.5,-118.112"/>
<polygon fill="black" stroke="black" points="134,-118.104 130.5,-108.104 127,-118.104 134,-118.104"/>
</g>
</g>
</svg>
