<?xml version="1.0" encoding="UTF-8" standalone="no"?>
<?xml-stylesheet href="../../graphviz.css" type="text/css"?>
<!DOCTYPE svg PUBLIC "-//W3C//DTD SVG 1.1//EN"
 "http://www.w3.org/Graphics/SVG/1.1/DTD/svg11.dtd">
<!-- Generated by graphviz version 2.38.0 (20140413.2041)
 -->
<!-- Title: G Pages: 1 -->
<svg width="746pt" height="260pt"
 viewBox="0.00 0.00 746.05 260.00" xmlns="http://www.w3.org/2000/svg" xmlns:xlink="http://www.w3.org/1999/xlink">
<g id="graph0" class="graph" transform="scale(1 1) rotate(0) translate(4 256)">
<title>G</title>
<polygon fill="white" stroke="none" points="-4,4 -4,-256 742.047,-256 742.047,4 -4,4"/>
<!-- ul -->
<g id="node1" class="node"><title>ul</title>
<polygon fill="none" stroke="black" points="388.271,-234 374.771,-252 347.771,-252 334.271,-234 347.771,-216 374.771,-216 388.271,-234"/>
<text text-anchor="middle" x="361.271" y="-230.3" font-family="Times New Roman,serif" font-size="14.00">ul</text>
</g>
<!-- li1 -->
<g id="node2" class="node"><title>li1</title>
<polygon fill="none" stroke="black" points="179.271,-162 165.771,-180 138.771,-180 125.271,-162 138.771,-144 165.771,-144 179.271,-162"/>
<text text-anchor="middle" x="152.271" y="-158.3" font-family="Times New Roman,serif" font-size="14.00">li</text>
</g>
<!-- ul&#45;&gt;li1 -->
<g id="edge1" class="edge"><title>ul&#45;&gt;li1</title>
<path fill="none" stroke="black" d="M340.081,-225.903C302.996,-213.482 226.189,-187.757 183.173,-173.35"/>
<polygon fill="black" stroke="black" points="184.111,-169.973 173.517,-170.116 181.888,-176.611 184.111,-169.973"/>
</g>
<!-- li2 -->
<!-- ul&#45;&gt;li2 -->
<!-- li3 -->
<g id="node4" class="node"><title>li3</title>
<polygon fill="none" stroke="black" points="601.271,-162 587.771,-180 560.771,-180 547.271,-162 560.771,-144 587.771,-144 601.271,-162"/>
<text text-anchor="middle" x="574.271" y="-158.3" font-family="Times New Roman,serif" font-size="14.00">li</text>
</g>
<!-- ul&#45;&gt;li3 -->
<g id="edge3" class="edge"><title>ul&#45;&gt;li3</title>
<path fill="none" stroke="black" d="M382.473,-226.032C420.35,-213.584 499.77,-187.484 543.597,-173.081"/>
<polygon fill="black" stroke="black" points="544.747,-176.387 553.155,-169.94 542.562,-169.737 544.747,-176.387"/>
</g>
<!-- span1 -->
<g id="node5" class="node"><title>span1</title>
<polygon fill="none" stroke="black" points="64.3147,-90 48.2928,-108 16.2492,-108 0.22737,-90 16.2492,-72 48.2928,-72 64.3147,-90"/>
<text text-anchor="middle" x="32.271" y="-86.3" font-family="Times New Roman,serif" font-size="14.00">span</text>
</g>
<!-- li1&#45;&gt;span1 -->
<g id="edge4" class="edge"><title>li1&#45;&gt;span1</title>
<path fill="none" stroke="black" d="M133.784,-150.216C114.6,-139.025 84.3108,-121.357 61.8054,-108.228"/>
<polygon fill="black" stroke="black" points="63.3972,-105.105 52.9958,-103.089 59.8701,-111.151 63.3972,-105.105"/>
</g>
<!-- space1 -->
<g id="node6" class="node"><title>space1</title>
<text text-anchor="middle" x="109.271" y="-86.3" font-family="Times New Roman,serif" font-size="14.00">&#39; &#39;</text>
</g>
<!-- li1&#45;&gt;space1 -->
<g id="edge5" class="edge"><title>li1&#45;&gt;space1</title>
<path fill="none" stroke="black" d="M141.642,-143.697C136.643,-135.559 130.58,-125.689 125.059,-116.701"/>
<polygon fill="black" stroke="black" points="127.994,-114.793 119.778,-108.104 122.03,-118.457 127.994,-114.793"/>
</g>
<!-- button1 -->
<g id="node7" class="node"><title>button1</title>
<polygon fill="none" stroke="black" points="233.824,-90 214.048,-108 174.494,-108 154.718,-90 174.494,-72 214.048,-72 233.824,-90"/>
<text text-anchor="middle" x="194.271" y="-86.3" font-family="Times New Roman,serif" font-size="14.00">button</text>
</g>
<!-- li1&#45;&gt;button1 -->
<g id="edge6" class="edge"><title>li1&#45;&gt;button1</title>
<path fill="none" stroke="black" d="M162.653,-143.697C167.536,-135.559 173.458,-125.689 178.85,-116.701"/>
<polygon fill="black" stroke="black" points="181.865,-118.48 184.008,-108.104 175.862,-114.879 181.865,-118.48"/>
</g>
<!-- span2 -->
<!-- li2&#45;&gt;span2 -->
<!-- space2 -->
<!-- li2&#45;&gt;space2 -->
<!-- button2 -->
<!-- li2&#45;&gt;button2 -->
<!-- span3 -->
<g id="node15" class="node"><title>span3</title>
<polygon fill="none" stroke="black" points="568.315,-90 552.293,-108 520.249,-108 504.227,-90 520.249,-72 552.293,-72 568.315,-90"/>
<text text-anchor="middle" x="536.271" y="-86.3" font-family="Times New Roman,serif" font-size="14.00">span</text>
</g>
<!-- li3&#45;&gt;span3 -->
<g id="edge14" class="edge"><title>li3&#45;&gt;span3</title>
<path fill="none" stroke="black" d="M564.878,-143.697C560.506,-135.644 555.214,-125.894 550.376,-116.982"/>
<polygon fill="black" stroke="black" points="553.403,-115.223 545.556,-108.104 547.251,-118.563 553.403,-115.223"/>
</g>
<!-- space3 -->
<g id="node16" class="node"><title>space3</title>
<text text-anchor="middle" x="613.271" y="-86.3" font-family="Times New Roman,serif" font-size="14.00">&#39; &#39;</text>
</g>
<!-- li3&#45;&gt;space3 -->
<g id="edge15" class="edge"><title>li3&#45;&gt;space3</title>
<path fill="none" stroke="black" d="M583.911,-143.697C588.398,-135.644 593.83,-125.894 598.795,-116.982"/>
<polygon fill="black" stroke="black" points="601.932,-118.544 603.741,-108.104 595.817,-115.137 601.932,-118.544"/>
</g>
<!-- button3 -->
<g id="node17" class="node"><title>button3</title>
<polygon fill="none" stroke="black" points="737.824,-90 718.048,-108 678.494,-108 658.718,-90 678.494,-72 718.048,-72 737.824,-90"/>
<text text-anchor="middle" x="698.271" y="-86.3" font-family="Times New Roman,serif" font-size="14.00">button</text>
</g>
<!-- li3&#45;&gt;button3 -->
<g id="edge16" class="edge"><title>li3&#45;&gt;button3</title>
<path fill="none" stroke="black" d="M592.835,-150.52C612.041,-139.678 642.421,-122.528 665.648,-109.416"/>
<polygon fill="black" stroke="black" points="667.488,-112.397 674.476,-104.433 664.047,-106.301 667.488,-112.397"/>
</g>
<!-- span_content1 -->
<g id="node8" class="node"><title>span_content1</title>
<text text-anchor="middle" x="32.271" y="-14.3" font-family="Times New Roman,serif" font-size="14.00">Eggs</text>
</g>
<!-- span1&#45;&gt;span_content1 -->
<g id="edge7" class="edge"><title>span1&#45;&gt;span_content1</title>
<path fill="none" stroke="black" d="M32.271,-71.6966C32.271,-63.9827 32.271,-54.7125 32.271,-46.1124"/>
<polygon fill="black" stroke="black" points="35.7711,-46.1043 32.271,-36.1043 28.7711,-46.1044 35.7711,-46.1043"/>
</g>
<!-- button_content1 -->
<g id="node9" class="node"><title>button_content1</title>
<text text-anchor="middle" x="194.271" y="-14.3" font-family="Times New Roman,serif" font-size="14.00">Delete</text>
</g>
<!-- button1&#45;&gt;button_content1 -->
<g id="edge8" class="edge"><title>button1&#45;&gt;button_content1</title>
<path fill="none" stroke="black" d="M194.271,-71.6966C194.271,-63.9827 194.271,-54.7125 194.271,-46.1124"/>
<polygon fill="black" stroke="black" points="197.771,-46.1043 194.271,-36.1043 190.771,-46.1044 197.771,-46.1043"/>
</g>
<!-- span_content2 -->
<!-- span2&#45;&gt;span_content2 -->
<!-- button_content2 -->
<!-- button2&#45;&gt;button_content2 -->
<!-- span_content3 -->
<g id="node18" class="node"><title>span_content3</title>
<text text-anchor="middle" x="536.271" y="-14.3" font-family="Times New Roman,serif" font-size="14.00">Bread</text>
</g>
<!-- span3&#45;&gt;span_content3 -->
<g id="edge17" class="edge"><title>span3&#45;&gt;span_content3</title>
<path fill="none" stroke="black" d="M536.271,-71.6966C536.271,-63.9827 536.271,-54.7125 536.271,-46.1124"/>
<polygon fill="black" stroke="black" points="539.771,-46.1043 536.271,-36.1043 532.771,-46.1044 539.771,-46.1043"/>
</g>
<!-- button_content3 -->
<g id="node19" class="node"><title>button_content3</title>
<text text-anchor="middle" x="698.271" y="-14.3" font-family="Times New Roman,serif" font-size="14.00">Delete</text>
</g>
<!-- button3&#45;&gt;button_content3 -->
<g id="edge18" class="edge"><title>button3&#45;&gt;button_content3</title>
<path fill="none" stroke="black" d="M698.271,-71.6966C698.271,-63.9827 698.271,-54.7125 698.271,-46.1124"/>
<polygon fill="black" stroke="black" points="701.771,-46.1043 698.271,-36.1043 694.771,-46.1044 701.771,-46.1043"/>
</g>
</g>
</svg>
